Exploratory Factor Analysis – R Guide
…
Rows: 2571 Columns: 24
── Column specification ────────────────────────────────────────────────────────
Delimiter: ","
chr  (1): id
dbl (23): raq_01, raq_02, raq_03, raq_04, raq_05, raq_06, raq_07, raq_08, ra...

ℹ Use `spec()` to retrieve the full column specification for this data.
ℹ Specify the column types or set `show_col_types = FALSE` to quiet this message.

#creating object with only raq items (without id number)
raq_items_tib <- raq_tib |> 
  dplyr::select(-id)
raq_items_tib

# A tibble: 2,571 × 23
   raq_01 raq_02 raq_03 raq_04 raq_05 raq_06 raq_07 raq_08 raq_09 raq_10 raq_11
    <dbl>  <dbl>  <dbl>  <dbl>  <dbl>  <dbl>  <dbl>  <dbl>  <dbl>  <dbl>  <dbl>
 1      3      1      3      4      2      4      3      3      3      2      2
 2      2      5      3      3      4      4      5      4      4      3      4
 3      4      5      3      3      3      4      5      4      3      4      4
 4      4      4      4      3      4      4      4      3      2      2      2
 5      4      2      5      4      2      3      2      5      4      5      4
 6      2      3      4      3      4      2      3      2      3      2      1
 7      2      4      5      5      3      3      4      3      3      3      3
 8      4      3      4      3      5      4      5      4      3      5      3
 9      3      5      5      1      3      4      4      3      5      3      3
10      2      5      3      2      4      5      5      5      4      4      4
# ℹ 2,561 more rows
# ℹ 12 more variables: raq_12 <dbl>, raq_13 <dbl>, raq_14 <dbl>, raq_15 <dbl>,
#   raq_16 <dbl>, raq_17 <dbl>, raq_18 <dbl>, raq_19 <dbl>, raq_20 <dbl>,
#   raq_21 <dbl>, raq_22 <dbl>, raq_23 <dbl>
…
